Show                              	Rating	Fin Main	Fin All	Eps Watched
Violet Evergarden                 	-1	0	0	3
Made In Abyss                     	-1	0	0	1
Steins;gate                       	8	0	0	24
The Tatami Galaxy                 	-1	1	1	12
Tengen Toppa Gurren Langen        	-1	0	0	2
Psycho Pass                       	9	0	0	12
Danshi Koukousei no Nichijou      	-1	0	0	12
Shoujo Shuumatsu Ryoko            	-1	0	0	5
Madoka Magica                     	7	0	0	12
Tsuki ga Kirei                    	-1	0	0	2
Aku no Hana                       	-1	0	0	5
Maoyuu Maou Yuusha                	-1	0	0	4
Mushishi                          	8	0	0	3
Land of the Lustrous              	8	0	0	8
Spice and Wolf                    	9	0	0	18
Gunbuster + Diebuster             	-1	0	0	1
From the new world                	8	1	1	26
Monogatari Series                 	10	1	1	106
Evangelion Movies                 	-1	1	0	1
Flying Witch                      	6	0	0	6
Ano Natsu                         	-1	1	1	12
Ano Hana                          	-1	1	1	12
Hyouka                            	10	1	1	26
Katanagatari                      	10	1	1	12
